{
  "formatVersion" : 1,
  "passTypeIdentifier" : "pass.com.ellucian.MobileIdeas.event",
  "serialNumber" : "nmyuxofgnb",
  "teamIdentifier" : "3823924676",
   "webServiceURL" : "https://example.com/passes/",
  "authenticationToken" : "vxwxd7J8AlNNFPS8k0a0FfUFtq0ewzFdc",
  "relevantDate" : "2015-04-15T12:15-06:00",
  "locations" : [
    {
      "longitude" : -90.0629,
      "latitude" : 29.9397
    },
  ],
  "barcode" : {
    "message" : "Big Ideas",
    "format" : "PKBarcodeFormatPDF417",
    "messageEncoding" : "iso-8859-1"
  },
  "organizationName" : "Ellucian",
  "description" : "Big Ideas",
  "foregroundColor" : "rgb(255, 255, 255)",
  "backgroundColor" : "rgb(60, 65, 76)",
  "labelColor" : "rgb(0, 0, 0)",
  "eventTicket" : {
    "primaryFields" : [
      {
        "key" : "event",
        "label" : "EVENT",
        "value" : "Big Ideas: Passbook, Beacons, Wearables, QR Codes"
      }
    ],
	"secondaryFields" : [
      {
        "key" : "loc",
        "label" : "LOCATION",
        "value" : "Room 350 & 351"
      }
    ],
    "backFields" : [
      {
        "key" : "terms",
        "label" : "TERMS AND CONDITIONS",
        "value" : "Demo pass\nPass created for the Ellucian Live Big Ideas session"
      }
    ]
  }
}